module_sc/and_vcd_waves.vcd
$date
     Mar 16, 2023       15:12:30
$end

$version
              SystemC 2.3.0_pub_rev_20111121-OSCI --- Mar 13 2023 10:47:00
$end

$timescale
     1 ps
$end

$scope module SystemC $end
$var wire    1  aaa  inp_1       $end
$var wire    1  aab  inp_2       $end
$var wire    1  aac  and_output       $end
$var wire    1  aad  trace_clk       $end
$var wire    1  aae  trace_clr       $end
$upscope $end
$enddefinitions  $end

$comment
All initial values are dumped below at time 0 sec = 0 timescale units.
$end

$dumpvars
1aaa
0aab
0aac
1aad
1aae
$end

#5000
0aad

#10000
1aad
0aae

#15000
0aad

#20000
1aad

#25000
0aad

#30000
0aaa
1aab
1aad
1aae

#35000
0aad

#40000
1aad

#45000
0aad

#50000
1aaa
1aad

#55000
0aad

#60000
0aaa
0aab
1aad
0aae

#65000
0aad

#70000
1aad

#75000
0aad

#80000
1aad

#85000
0aad

#90000
1aad

#95000
0aad

#100000
1aab
1aad
1aae

#105000
0aad

#110000
0aab
1aad

#115000
0aad

#120000
1aab
1aad

#125000
0aad

#130000
1aaa
1aad

#135000
0aad

#140000
0aaa
0aab
1aad

#145000
0aad

#150000
1aab
1aad
0aae

#155000
0aad

#160000
1aad

#165000
0aad

#170000
0aab
1aad

#175000
0aad

#180000
1aaa
1aad

#185000
0aad

#190000
1aab
1aac
1aad

#195000
0aad

#200000
0aaa
0aac
1aad

#205000
0aad

#210000
1aaa
1aad
1aae

#215000
0aad

#220000
0aab
1aad

#225000
0aad

#230000
0aaa
1aab
1aad

#235000
0aad

#240000
1aaa
0aab
1aad
0aae

#245000
0aad

#250000
0aaa
1aad

#255000
0aad

#260000
1aad

#265000
0aad

#270000
1aad
1aae

#275000
0aad

#280000
1aab
1aad

#285000
0aad

#290000
1aad
0aae

