half_adder/half_adder_vcd_waves.vcd
$date
     Mar 20, 2023       12:33:32
$end

$version
              SystemC 2.3.0_pub_rev_20111121-OSCI --- Mar 13 2023 10:47:00
$end

$timescale
     1 ps
$end

$scope module SystemC $end
$var wire    1  aaa  clear       $end
$var wire    1  aab  clk       $end
$var wire    4  aaaac  input_a [3:0]  $end
$var wire    4  aaaad  input_b [3:0]  $end
$var wire    4  aaaae  sum [3:0]  $end
$var wire    1  aaf  carry       $end
$upscope $end
$enddefinitions  $end

$comment
All initial values are dumped below at time 0 sec = 0 timescale units.
$end

$dumpvars
0aaa
1aab
b0 aaaac
b0 aaaad
b0 aaaae
0aaf
$end

#5000
1aaa
0aab
b1011 aaaac
b10 aaaad

#10000
1aab

#15000
0aab
b100 aaaac
b100 aaaad

#20000
1aab

#25000
0aab
b1001 aaaac

#30000
1aab

#35000
0aab
b11 aaaac
b1100 aaaad

#40000
1aab

#45000
0aaa
0aab
b1 aaaac
b100 aaaad

#50000
1aab
b1 aaaae

#55000
0aab
b1100 aaaad

#60000
1aab

#65000
0aab
b1101 aaaac
b11 aaaad

#70000
1aab
b1110 aaaae

#75000
1aaa
0aab
b1110 aaaac
b1011 aaaad
b0 aaaae

#80000
1aab

#85000
0aaa
0aab
b0 aaaac
b110 aaaad

#90000
1aab

#95000
0aab
b10 aaaad

#100000
1aab

#105000
1aaa
0aab
b11 aaaac
b1101 aaaad

#110000
1aab

#115000
0aab
b1100 aaaac
b1 aaaad

#120000
1aab

#125000
0aaa
0aab
b1000 aaaac
b1010 aaaad

#130000
1aab
b1000 aaaae

#135000
0aab
b1111 aaaac
b1101 aaaad

#140000
1aab
b0 aaaae
1aaf

#145000
0aab
b101 aaaac
b1110 aaaad

