half_adder/half_adder_vcd_waves.vcd
$date
     Mar 17, 2023       13:11:08
$end

$version
              SystemC 2.3.0_pub_rev_20111121-OSCI --- Mar 13 2023 10:47:00
$end

$timescale
     1 ps
$end

$scope module SystemC $end
$var wire    1  aaa  clear       $end
$var wire    1  aab  clk       $end
$var wire    4  aaaac  input_a [3:0]  $end
$var wire    4  aaaad  input_b [3:0]  $end
$var wire    4  aaaae  sum [3:0]  $end
$var wire    1  aaf  carry       $end
$upscope $end
$enddefinitions  $end

$comment
All initial values are dumped below at time 0 sec = 0 timescale units.
$end

$dumpvars
1aaa
1aab
b1011 aaaac
b1010 aaaad
b0 aaaae
0aaf
$end

#5000
0aab

#10000
0aaa
1aab
b0 aaaac
b1100 aaaad
b1100 aaaae

#15000
0aab

#20000
1aaa
1aab
b10 aaaac
b1011 aaaad
b0 aaaae

#25000
0aab

#30000
0aaa
1aab
b1000 aaaac
b101 aaaad
b1101 aaaae

#35000
0aab

#40000
1aaa
1aab
b11 aaaac
b1101 aaaad
b0 aaaae

#45000
0aab

#50000
1aab
b0 aaaac
b1011 aaaad

#55000
0aab

#60000
1aab
b111 aaaac
b0 aaaad

#65000
0aab

#70000
1aab
b100 aaaad

#75000
0aab

#80000
0aaa
1aab
b1101 aaaac
b110 aaaad
b11 aaaae
1aaf

#85000
0aab

#90000
1aab
b1 aaaac
b1 aaaad
b10 aaaae
0aaf

#95000
0aab

#100000
1aaa
1aab
b10 aaaac
b1100 aaaad
b0 aaaae

#105000
0aab

#110000
1aab
b110 aaaac

#115000
0aab

#120000
1aab
b1001 aaaac
b1111 aaaad

#125000
0aab

#130000
0aaa
1aab
b1101 aaaac
b111 aaaad
b100 aaaae
1aaf

#135000
0aab

#140000
1aaa
1aab
b1010 aaaad
b0 aaaae
0aaf

