half_adder/half_adder_vcd_waves.vcd
$date
     Mar 16, 2023       17:46:06
$end

$version
              SystemC 2.3.0_pub_rev_20111121-OSCI --- Mar 13 2023 10:47:00
$end

$timescale
     1 ps
$end

$scope module SystemC $end
$var wire    1  aaa  clear       $end
$var wire    1  aab  clk       $end
$var wire    1  aac  input_a       $end
$var wire    1  aad  input_b       $end
$var wire    1  aae  sum       $end
$var wire    1  aaf  carry       $end
$upscope $end
$enddefinitions  $end

$comment
All initial values are dumped below at time 0 sec = 0 timescale units.
$end

$dumpvars
0aaa
1aab
0aac
1aad
1aae
0aaf
$end

#5000
0aab

#10000
1aab

#15000
0aab

#20000
1aaa
1aab
0aad
0aae

#25000
0aab

#30000
0aaa
1aab
1aad
1aae

#35000
0aab

#40000
1aaa
1aab
1aac
0aad
0aae

#45000
0aab

#50000
1aab

#55000
0aab

#60000
1aab
0aac
1aad

#65000
0aab

#70000
0aaa
1aab
1aae

#75000
0aab

#80000
1aab
0aad
0aae

#85000
0aab

#90000
1aaa
1aab
1aad

#95000
0aab

#100000
1aab

#105000
0aab

#110000
0aaa
1aab
1aac
1aaf

#115000
0aab

#120000
1aaa
1aab
0aac
0aaf

#125000
0aab

#130000
1aab
0aad

#135000
0aab

#140000
1aab
1aad

#145000
0aab

#150000
1aab
1aac

#155000
0aab

#160000
1aab
0aac

#165000
0aab

#170000
1aab

#175000
0aab

#180000
0aaa
1aab
0aad

#185000
0aab

#190000
1aab
1aac
1aae

#195000
0aab

#200000
1aaa
1aab
0aac
1aad
0aae

#205000
0aab

#210000
1aab
0aad

#215000
0aab

#220000
0aaa
1aab

#225000
0aab

#230000
1aab
1aac
1aae

#235000
0aab

#240000
1aab
0aac
0aae

#245000
0aab

#250000
1aaa
1aab
1aac
1aad

#255000
0aab

#260000
0aaa
1aab
1aaf

#265000
0aab

#270000
1aab
0aac
1aae
0aaf

#275000
0aab

#280000
1aaa
1aab
0aad
0aae

#285000
0aab

#290000
1aab
1aad

