half_adder/half_adder_vcd_waves.vcd
$date
     Mar 17, 2023       15:07:37
$end

$version
              SystemC 2.3.0_pub_rev_20111121-OSCI --- Mar 13 2023 10:47:00
$end

$timescale
     1 ps
$end

$scope module SystemC $end
$var wire    1  aaa  clear       $end
$var wire    1  aab  clk       $end
$var wire    4  aaaac  input_a [3:0]  $end
$var wire    4  aaaad  input_b [3:0]  $end
$var wire    4  aaaae  sum [3:0]  $end
$var wire    1  aaf  carry       $end
$upscope $end
$enddefinitions  $end

$comment
All initial values are dumped below at time 0 sec = 0 timescale units.
$end

$dumpvars
0aaa
1aab
b0 aaaac
b0 aaaad
b0 aaaae
0aaf
$end

#5000
1aaa
0aab
b111 aaaac
b1000 aaaad

#10000
1aab

#15000
0aab
b0 aaaad

#20000
1aab

#25000
0aab
b110 aaaac
b1001 aaaad

#30000
1aab

#35000
0aab
b0 aaaac
b101 aaaad

#40000
1aab

#45000
0aab
b1 aaaac
b1111 aaaad

#50000
1aab

#55000
0aaa
0aab
b0 aaaac
b1110 aaaad

#60000
1aab
b1110 aaaae

#65000
1aaa
0aab
b1010 aaaac
b111 aaaad
b0 aaaae

#70000
1aab

#75000
0aab
b0 aaaac
b1001 aaaad

#80000
1aab

#85000
0aaa
0aab
b1110 aaaac
b100 aaaad

#90000
1aab
b10 aaaae
1aaf

#95000
0aab
b110 aaaad

#100000
1aab
b100 aaaae

#105000
1aaa
0aab
b1011 aaaac
b1101 aaaad
b0 aaaae
0aaf

#110000
1aab

#115000
0aab
b1111 aaaac
b101 aaaad

#120000
1aab

#125000
0aab
b1110 aaaac
b1011 aaaad

#130000
1aab

#135000
0aab
b1 aaaac

#140000
1aab

#145000
0aaa
0aab
b11 aaaac
b1101 aaaad

