ha_using_gates/half_adder_vcd_waves.vcd
$date
     Mar 27, 2023       17:32:40
$end

$version
              SystemC 2.3.0_pub_rev_20111121-OSCI --- Mar 13 2023 10:47:00
$end

$timescale
     1 ps
$end

$scope module SystemC $end
$var wire    1  aaa  clear       $end
$var wire    1  aab  clk       $end
$var wire    1  aac  input_a       $end
$var wire    1  aad  input_b       $end
$var wire    1  aae  sum       $end
$var wire    1  aaf  carry       $end
$upscope $end
$enddefinitions  $end

$comment
All initial values are dumped below at time 0 sec = 0 timescale units.
$end

$dumpvars
0aaa
1aab
0aac
0aad
0aae
0aaf
$end

#5000
1aaa
0aab
1aac

#10000
1aab

#15000
0aaa
0aab

#20000
1aab
1aae

#25000
0aab
1aad

#30000
1aab
0aae
1aaf

#35000
1aaa
0aab
0aac
0aaf

#40000
1aab

#45000
0aab
1aac
0aad

#50000
1aab

#55000
0aab

#60000
1aab

#65000
0aaa
0aab
0aac

#70000
1aab

#75000
0aab
1aad

#80000
1aab
1aae

#85000
0aab
0aad

#90000
1aab
0aae

#95000
0aab
1aad

#100000
1aab
1aae

#105000
1aaa
0aab
0aae

#110000
1aab

#115000
0aab
0aad

#120000
1aab

#125000
0aab
1aad

#130000
1aab

#135000
0aaa
0aab
1aac
0aad

#140000
1aab
1aae

#145000
0aab
1aad

